…
``` r
## Borrar Datos Char

primer_tiempo2020
```

    ## # A tibble: 130 x 49
    ##    torneo   equipo   id_partido  partido   fasepartido local tiempo accuratePass
    ##    <chr>    <chr>    <chr>       <chr>     <chr>       <lgl> <chr>         <dbl>
    ##  1 Primera~ Uni<f3>~ 6xszsf73jq~ Universi~ Regular Se~ FALSE fh              235
    ##  2 Primera~ Univers~ 6xszsf73jq~ Universi~ Regular Se~ TRUE  fh              199
    ##  3 Primera~ Everton  e88gat05jr~ Universi~ Regular Se~ FALSE fh              157
    ##  4 Primera~ Univers~ e88gat05jr~ Universi~ Regular Se~ TRUE  fh              192
    ##  5 Primera~ Curic<f~ 35ijq76er8~ Universi~ Regular Se~ FALSE fh              142
    ##  6 Primera~ Univers~ 35ijq76er8~ Universi~ Regular Se~ TRUE  fh              168
    ##  7 Primera~ Coquimb~ 9o9ji2f68p~ Universi~ Regular Se~ FALSE fh              190
    ##  8 Primera~ Univers~ 9o9ji2f68p~ Universi~ Regular Se~ TRUE  fh              200
    ##  9 Primera~ Santiag~ 357wqv3701~ Universi~ Regular Se~ FALSE fh              156
    ## 10 Primera~ Univers~ 357wqv3701~ Universi~ Regular Se~ TRUE  fh               92
    ## # ... with 120 more rows, and 41 more variables: wonTackle <dbl>,
    ## #   lostCorners <dbl>, goalsConceded <dbl>, saves <dbl>,
    ## #   ontargetScoringAtt <dbl>, totalScoringAtt <dbl>, subsMade <dbl>,
    ## #   totalThrows <dbl>, totalYellowCard <dbl>, goalKicks <dbl>, totalPass <dbl>,
    ## #   fkFoulWon <dbl>, totalTackle <dbl>, fkFoulLost <dbl>,
    ## #   possessionPercentage <dbl>, totalClearance <dbl>, formationUsed <dbl>,
    ## #   blockedScoringAtt <dbl>, goalAssist <dbl>, goals <dbl>, totalOffside <dbl>,
    ## #   shotOffTarget <dbl>, wonCorners <dbl>, cornerTaken <dbl>,
    ## #   penaltyConceded <dbl>, penaltyFaced <dbl>, penGoalsConceded <dbl>,
    ## #   penaltyWon <dbl>, ownGoals <dbl>, penaltySave <dbl>, secondYellow <dbl>,
    ## #   totalRedCard <dbl>, posesion_Rival <dbl>, precision_pases <dbl>,
    ## #   precision_tiros <dbl>, minutos_juego <dbl>, minutos_juegorival <dbl>,
    ## #   golesSalvados <dbl>, foulsInofensivos <dbl>, cortarJuegoContrario <dbl>,
    ## #   juegoCortado <dbl>

``` r
primer_tiempo2020 <- primer_tiempo2020[,!(colnames(primer_tiempo2020) %in% c("id_partido", "fasepartido", "local", "tiempo","formationUsed", "torneo"))]
primer_tiempo2020
```

    ## # A tibble: 130 x 43
    ##    equipo    partido      accuratePass wonTackle lostCorners goalsConceded saves
    ##    <chr>     <chr>               <dbl>     <dbl>       <dbl>         <dbl> <dbl>
    ##  1 Uni<f3>n~ Universidad~          235         2           3             1     4
    ##  2 Universi~ Universidad~          199         2           0             0     1
    ##  3 Everton   Universidad~          157         7           6             0     3
    ##  4 Universi~ Universidad~          192         4           1             0     2
    ##  5 Curic<f3~ Universidad~          142         6           3             2     2
    ##  6 Universi~ Universidad~          168         8           1             1     2
    ##  7 Coquimbo~ Universidad~          190         3           0             0     2
    ##  8 Universi~ Universidad~          200         5           0             0     0
    ##  9 Santiago~ Universidad~          156         4           3             0     0
    ## 10 Universi~ Universidad~           92         4           1             1     1
    ## # ... with 120 more rows, and 36 more variables: ontargetScoringAtt <dbl>,
    ## #   totalScoringAtt <dbl>, subsMade <dbl>, totalThrows <dbl>,
    ## #   totalYellowCard <dbl>, goalKicks <dbl>, totalPass <dbl>, fkFoulWon <dbl>,
    ## #   totalTackle <dbl>, fkFoulLost <dbl>, possessionPercentage <dbl>,
    ## #   totalClearance <dbl>, blockedScoringAtt <dbl>, goalAssist <dbl>,
    ## #   goals <dbl>, totalOffside <dbl>, shotOffTarget <dbl>, wonCorners <dbl>,
    ## #   cornerTaken <dbl>, penaltyConceded <dbl>, penaltyFaced <dbl>,
    ## #   penGoalsConceded <dbl>, penaltyWon <dbl>, ownGoals <dbl>,
    ## #   penaltySave <dbl>, secondYellow <dbl>, totalRedCard <dbl>,
    ## #   posesion_Rival <dbl>, precision_pases <dbl>, precision_tiros <dbl>,
    ## #   minutos_juego <dbl>, minutos_juegorival <dbl>, golesSalvados <dbl>,
    ## #   foulsInofensivos <dbl>, cortarJuegoContrario <dbl>, juegoCortado <dbl>

``` r
## Analisis descriptivo


fh2020 <- primer_tiempo2020[order(primer_tiempo2020$goalAssist, decreasing = TRUE),]
fh2020
```

    ## # A tibble: 130 x 43
    ##    equipo    partido      accuratePass wonTackle lostCorners goalsConceded saves
    ##    <chr>     <chr>               <dbl>     <dbl>       <dbl>         <dbl> <dbl>
    ##  1 Universi~ Universidad~          168         8           1             1     2
    ##  2 Audax It~ Uni<f3>n Es~           94         7           2             1     1
    ##  3 O'Higgins O'Higgins v~          114         9           2             1     1
    ##  4 La Serena La Serena v~          129         1           0             0     3
    ##  5 Huachipa~ Huachipato ~           89         4           7             0     2
    ##  6 Universi~ Deportivo A~          202         6           2             1     3
    ##  7 Deportiv~ Deportivo A~          162         9           1             0     0
    ##  8 Colo Colo Colo Colo v~          231         4           0             0     0
    ##  9 Audax It~ Audax Itali~          219         6           1             0     0
    ## 10 Universi~ Universidad~          199         2           0             0     1
    ## # ... with 120 more rows, and 36 more variables: ontargetScoringAtt <dbl>,
    ## #   totalScoringAtt <dbl>, subsMade <dbl>, totalThrows <dbl>,
    ## #   totalYellowCard <dbl>, goalKicks <dbl>, totalPass <dbl>, fkFoulWon <dbl>,
    ## #   totalTackle <dbl>, fkFoulLost <dbl>, possessionPercentage <dbl>,
    ## #   totalClearance <dbl>, blockedScoringAtt <dbl>, goalAssist <dbl>,
    ## #   goals <dbl>, totalOffside <dbl>, shotOffTarget <dbl>, wonCorners <dbl>,
    ## #   cornerTaken <dbl>, penaltyConceded <dbl>, penaltyFaced <dbl>,
    ## #   penGoalsConceded <dbl>, penaltyWon <dbl>, ownGoals <dbl>,
    ## #   penaltySave <dbl>, secondYellow <dbl>, totalRedCard <dbl>,
    ## #   posesion_Rival <dbl>, precision_pases <dbl>, precision_tiros <dbl>,
    ## #   minutos_juego <dbl>, minutos_juegorival <dbl>, golesSalvados <dbl>,
    ## #   foulsInofensivos <dbl>, cortarJuegoContrario <dbl>, juegoCortado <dbl>

``` r
## Sub DataFrames

fh2020_corners = fh2020[,colnames(primer_tiempo2020) %in% c( "equipo", "lostCorners", "partido", "wonCorners", "cornerTaken", "shotogTarget")]
fh2020_corners = fh2020_corners[order(fh2020_corners$wonCorners, decreasing = TRUE),]
fh2020_corners
```

    ## # A tibble: 130 x 5
    ##    equipo           partido                   lostCorners wonCorners cornerTaken
    ##    <chr>            <chr>                           <dbl>      <dbl>       <dbl>
    ##  1 Audax Italiano   Huachipato vs Audax Ital~           5          7           7
    ##  2 Uni<f3>n La Cal~ Uni<f3>n La Calera vs Co~           2          6           6
    ##  3 Universidad de ~ Universidad de Chile vs ~           1          6           6
    ##  4 Universidad de ~ Huachipato vs Universida~           3          6           6
    ##  5 Uni<f3>n La Cal~ Everton vs Uni<f3>n La C~           1          6           6
    ##  6 Huachipato       Huachipato vs Audax Ital~           7          5           5
    ##  7 Uni<f3>n La Cal~ Uni<f3>n La Calera vs La~           3          5           5
    ##  8 Uni<f3>n Espa<f~ O'Higgins vs Uni<f3>n Es~           0          5           5
    ##  9 Santiago Wander~ O'Higgins vs Santiago Wa~           1          5           5
    ## 10 Deportivo Antof~ La Serena vs Deportivo A~           3          5           5
    ## # ... with 120 more rows
…
